<svg width="25" height="25" viewBox="0 0 25 25" fill="none" xmlns="http://www.w3.org/2000/svg">
	<g clip-path="url(#clip0)">
		<path d="M21.058 10.491C21.088 6.96635 18.086 3.73514 14.366 3.28832C14.292 3.27955 14.2114 3.26619 14.1261 3.25206C13.942 3.22155 13.7515 3.19019 13.5593 3.19019C12.7969 3.19019 12.5931 3.72574 12.5395 4.04515C12.4873 4.35571 12.5371 4.61651 12.6871 4.82062C12.9396 5.16394 13.3839 5.22489 13.7407 5.27373C13.8453 5.28817 13.944 5.3016 14.0266 5.32015C17.3688 6.06697 18.4942 7.24112 19.0442 10.5549C19.0576 10.6359 19.0637 10.7357 19.0701 10.8415C19.0941 11.2376 19.1441 12.0618 20.0302 12.0618H20.0302C20.104 12.0618 20.1833 12.0554 20.2658 12.0428C21.0909 11.9174 21.065 11.1641 21.0526 10.8021C21.0491 10.7002 21.0458 10.6038 21.0544 10.5396C21.0567 10.5235 21.0579 10.5073 21.058 10.491Z"
			  fill="#101F32"/>
		<path d="M13.343 1.99441C13.442 2.00155 13.5357 2.00838 13.6137 2.02034C19.102 2.86436 21.626 5.46467 22.3255 10.9959C22.3374 11.0899 22.3392 11.2046 22.3412 11.326C22.3481 11.7582 22.3625 12.6571 23.328 12.6758L23.3579 12.6761C23.6607 12.6761 23.9016 12.5848 24.0738 12.4045C24.3744 12.0901 24.3534 11.6231 24.3365 11.2478C24.3324 11.1557 24.3284 11.069 24.3294 10.9931C24.3992 5.3361 19.5025 0.206366 13.8505 0.0156056C13.8271 0.0148292 13.8047 0.0160714 13.7821 0.0192547C13.771 0.0208851 13.7505 0.0229037 13.7152 0.0229037C13.6588 0.0229037 13.5895 0.0180124 13.516 0.0130435C13.4271 0.00698758 13.3263 0 13.2241 0C12.3241 0 12.1529 0.639752 12.1311 1.02112C12.0806 1.90248 12.9332 1.96452 13.343 1.99441Z"
			  fill="#101F32"/>
		<path d="M22.0606 18.1446C21.944 18.0554 21.8233 17.9632 21.7103 17.8722C21.1111 17.39 20.4736 16.9455 19.8571 16.5156C19.7291 16.4265 19.6012 16.3373 19.4737 16.2478C18.6839 15.6931 17.9739 15.4235 17.3031 15.4235C16.3996 15.4235 15.6119 15.9228 14.9617 16.9071C14.6737 17.3436 14.3242 17.5557 13.8936 17.5557C13.6389 17.5557 13.3495 17.4831 13.0336 17.3397C10.4845 16.1837 8.66422 14.4113 7.6233 12.0718C7.12012 10.9411 7.28324 10.2019 8.1688 9.6004C8.67167 9.25909 9.6077 8.62369 9.54139 7.40692C9.46631 6.02517 6.41756 1.86764 5.13301 1.39543C4.58914 1.19543 4.01771 1.19357 3.43153 1.39077C1.95482 1.8872 0.895119 2.75902 0.366703 3.91181C-0.143934 5.02571 -0.120875 6.33363 0.433395 7.69419C2.03572 11.6279 4.28852 15.0575 7.12944 17.8877C9.91018 20.6582 13.328 22.9276 17.2877 24.6327C17.6447 24.7863 18.019 24.87 18.2924 24.9311C18.3856 24.9521 18.466 24.97 18.5246 24.986C18.5568 24.9948 18.5901 24.9995 18.6234 24.9998L18.6547 25C18.6547 25 18.6547 25 18.6548 25C20.5172 25 22.7535 23.2981 23.4403 21.3579C24.042 19.659 22.9434 18.8193 22.0606 18.1446Z"
			  fill="#101F32"/>
		<path d="M14.1668 6.48798C13.848 6.49606 13.1844 6.51252 12.9515 7.18837C12.8426 7.50421 12.8556 7.77844 12.9903 8.00344C13.188 8.33356 13.5667 8.43472 13.9112 8.49024C15.1605 8.6907 15.8022 9.38154 15.9305 10.6642C15.9901 11.2622 16.3928 11.6798 16.9099 11.6798H16.91C16.9482 11.6798 16.9873 11.6776 17.0261 11.6729C17.648 11.5989 17.9495 11.1419 17.9223 10.3149C17.9322 9.45181 17.4805 8.47191 16.7122 7.6914C15.9414 6.90848 15.0121 6.46756 14.1668 6.48798Z"
			  fill="#101F32"/>
	</g>
	<defs>
		<clipPath id="clip0">
			<rect width="25" height="25" fill="white"/>
		</clipPath>
	</defs>
</svg>
